EESchema Schematic File Version 4
EELAYER 30 0
EELAYER END
$Descr A3 16535 11693
encoding utf-8
Sheet 1 1
Title "Amplifier tone control board."
Date "2020-11-21"
Rev "1.0a"
Comp "Tijl Schepens"
Comment1 ""
Comment2 ""
Comment3 ""
Comment4 ""
$EndDescr
$Comp
L ST~Microelectronics:TDA7439 U1
U 1 1 5FB93501
P 9800 5600
F 0 "U1" H 11350 6550 50  0000 C CNN
F 1 "TDA7439" H 8550 6550 50  0000 C CNN
F 2 "Package_SO:SOIC-28W_7.5x17.9mm_P1.27mm" H 9750 6800 50  0001 C CNN
F 3 "https://www.st.com/resource/en/datasheet/tda7439ds.pdf" H 9750 6800 50  0001 C CNN
	1    9800 5600
	1    0    0    -1  
$EndComp
$Comp
L ST~Microelectronics:TDA7439 U1
U 2 1 5FB93EFA
P 7600 9250
F 0 "U1" H 7800 9600 50  0000 C CNN
F 1 "TDA7439" H 7750 8900 50  0000 C CNN
F 2 "Package_SO:SOIC-28W_7.5x17.9mm_P1.27mm" H 7550 10450 50  0001 C CNN
F 3 "https://www.st.com/resource/en/datasheet/tda7439ds.pdf" H 7550 10450 50  0001 C CNN
	2    7600 9250
	-1   0    0    -1  
$EndComp
$Comp
L Device:Net-Tie_2 NT1
U 1 1 5FB97DF1
P 7000 3850
F 0 "NT1" H 7000 4031 50  0000 C CNN
F 1 "Net-Tie_2" H 7000 3940 50  0000 C CNN
F 2 "NetTie:NetTie-2_THT_Pad1.0mm" H 7000 3850 50  0001 C CNN
F 3 "~" H 7000 3850 50  0001 C CNN
	1    7000 3850
	1    0    0    -1  
$EndComp
$Comp
L power:GNDA #PWR027
U 1 1 5FB98339
P 7200 3950
F 0 "#PWR027" H 7200 3700 50  0001 C CNN
F 1 "GNDA" H 7205 3777 50  0000 C CNN
F 2 "" H 7200 3950 50  0001 C CNN
F 3 "" H 7200 3950 50  0001 C CNN
	1    7200 3950
	1    0    0    -1  
$EndComp
$Comp
L power:GNDD #PWR026
U 1 1 5FB986D1
P 6800 3950
F 0 "#PWR026" H 6800 3700 50  0001 C CNN
F 1 "GNDD" H 6804 3795 50  0000 C CNN
F 2 "" H 6800 3950 50  0001 C CNN
F 3 "" H 6800 3950 50  0001 C CNN
	1    6800 3950
	1    0    0    -1  
$EndComp
Wire Wire Line
	7200 3850 7200 3950
Wire Wire Line
	7100 3850 7200 3850
Wire Wire Line
	6900 3850 6800 3850
Wire Wire Line
	6800 3850 6800 3950
$Comp
L power:GNDD #PWR011
U 1 1 5FB9A2DD
P 7100 9550
F 0 "#PWR011" H 7100 9300 50  0001 C CNN
F 1 "GNDD" H 7104 9395 50  0000 C CNN
F 2 "" H 7100 9550 50  0001 C CNN
F 3 "" H 7100 9550 50  0001 C CNN
	1    7100 9550
	-1   0    0    -1  
$EndComp
$Comp
L power:GNDA #PWR054
U 1 1 5FB9A632
P 11700 6450
F 0 "#PWR054" H 11700 6200 50  0001 C CNN
F 1 "GNDA" H 11705 6277 50  0000 C CNN
F 2 "" H 11700 6450 50  0001 C CNN
F 3 "" H 11700 6450 50  0001 C CNN
	1    11700 6450
	1    0    0    -1  
$EndComp
Wire Wire Line
	11550 6350 11700 6350
Wire Wire Line
	11700 6350 11700 6450
Wire Wire Line
	7200 9450 7100 9450
Wire Wire Line
	7100 9450 7100 9550
$Comp
L power:+9V #PWR055
U 1 1 5FB9FD69
P 11850 4550
F 0 "#PWR055" H 11850 4400 50  0001 C CNN
F 1 "+9V" H 11865 4723 50  0000 C CNN
F 2 "" H 11850 4550 50  0001 C CNN
F 3 "" H 11850 4550 50  0001 C CNN
	1    11850 4550
	1    0    0    -1  
$EndComp
$Comp
L Device:C C32
U 1 1 5FBA14B1
P 11850 4800
F 0 "C32" H 11965 4846 50  0000 L CNN
F 1 "100nF" H 11965 4755 50  0000 L CNN
F 2 "Capacitor_SMD:C_0603_1608Metric" H 11888 4650 50  0001 C CNN
F 3 "~" H 11850 4800 50  0001 C CNN
F 4 "0603YC104MAT4A" H 11850 4800 50  0001 C CNN "PartNumber"
	1    11850 4800
	1    0    0    -1  
$EndComp
$Comp
L power:GNDA #PWR056
U 1 1 5FBA25BF
P 11850 4950
F 0 "#PWR056" H 11850 4700 50  0001 C CNN
F 1 "GNDA" H 11855 4777 50  0000 C CNN
F 2 "" H 11850 4950 50  0001 C CNN
F 3 "" H 11850 4950 50  0001 C CNN
	1    11850 4950
	1    0    0    -1  
$EndComp
Wire Wire Line
	11550 4900 11650 4900
Wire Wire Line
	11650 4900 11650 4600
Wire Wire Line
	11650 4600 11850 4600
Wire Wire Line
	11850 4600 11850 4550
Wire Wire Line
	11850 4600 11850 4650
Connection ~ 11850 4600
$Comp
L Connector_Generic:Conn_01x04 J2
U 1 1 5FBAA61C
P 2250 5650
F 0 "J2" H 2300 5850 50  0000 C CNN
F 1 "Vout" H 2250 5350 50  0000 C CNN
F 2 "Phoenix_Contact:PTSA-3.5mm-4pins" H 2250 5650 50  0001 C CNN
F 3 "~" H 2250 5650 50  0001 C CNN
F 4 "1985218" H 2250 5650 50  0001 C CNN "PartNumber"
	1    2250 5650
	-1   0    0    -1  
$EndComp
$Comp
L Device:R R3
U 1 1 5FBAD620
P 6950 8550
F 0 "R3" H 6750 8600 50  0000 L CNN
F 1 "1k" H 6750 8500 50  0000 L CNN
F 2 "Resistor_SMD:R_0603_1608Metric" V 6880 8550 50  0001 C CNN
F 3 "~" H 6950 8550 50  0001 C CNN
	1    6950 8550
	-1   0    0    -1  
$EndComp
$Comp
L Device:R R4
U 1 1 5FBAE646
P 6600 8550
F 0 "R4" H 6400 8600 50  0000 L CNN
F 1 "1k" H 6400 8500 50  0000 L CNN
F 2 "Resistor_SMD:R_0603_1608Metric" V 6530 8550 50  0001 C CNN
F 3 "~" H 6600 8550 50  0001 C CNN
	1    6600 8550
	-1   0    0    -1  
$EndComp
$Comp
L power:+3V3 #PWR013
U 1 1 5FBB16B6
P 6950 8300
F 0 "#PWR013" H 6950 8150 50  0001 C CNN
F 1 "+3V3" H 6965 8473 50  0000 C CNN
F 2 "" H 6950 8300 50  0001 C CNN
F 3 "" H 6950 8300 50  0001 C CNN
	1    6950 8300
	-1   0    0    -1  
$EndComp
$Comp
L power:+3V3 #PWR014
U 1 1 5FBB4311
P 6600 8300
F 0 "#PWR014" H 6600 8150 50  0001 C CNN
F 1 "+3V3" H 6615 8473 50  0000 C CNN
F 2 "" H 6600 8300 50  0001 C CNN
F 3 "" H 6600 8300 50  0001 C CNN
	1    6600 8300
	-1   0    0    -1  
$EndComp
$Comp
L Analog~Devices:ADuM1250 U3
U 1 1 5FB95BE7
P 5100 9150
F 0 "U3" H 5600 9600 50  0000 C CNN
F 1 "ADuM1250" H 4750 9600 50  0000 C CNN
F 2 "Package_SO:SOIC-8_3.9x4.9mm_P1.27mm" H 4450 9950 50  0001 C CNN
F 3 "" H 4450 9950 50  0001 C CNN
	1    5100 9150
	-1   0    0    -1  
$EndComp
Wire Wire Line
	7200 9050 6950 9050
Wire Wire Line
	7200 9250 6600 9250
Connection ~ 6950 9050
Connection ~ 6600 9250
$Comp
L Device:C C6
U 1 1 5FBA913B
P 6250 8550
F 0 "C6" H 6365 8596 50  0000 L CNN
F 1 "100nF" H 6365 8505 50  0000 L CNN
F 2 "Capacitor_SMD:C_0603_1608Metric" H 6288 8400 50  0001 C CNN
F 3 "~" H 6250 8550 50  0001 C CNN
F 4 "0603YC104MAT4A" H 6250 8550 50  0001 C CNN "PartNumber"
	1    6250 8550
	-1   0    0    -1  
$EndComp
$Comp
L power:+3V3 #PWR016
U 1 1 5FBAC4A2
P 6250 8300
F 0 "#PWR016" H 6250 8150 50  0001 C CNN
F 1 "+3V3" H 6265 8473 50  0000 C CNN
F 2 "" H 6250 8300 50  0001 C CNN
F 3 "" H 6250 8300 50  0001 C CNN
	1    6250 8300
	-1   0    0    -1  
$EndComp
Wire Wire Line
	6950 8700 6950 9050
Wire Wire Line
	6950 8400 6950 8300
Wire Wire Line
	6600 8700 6600 9250
Wire Wire Line
	6600 8400 6600 8300
Wire Wire Line
	6250 8400 6250 8350
Wire Wire Line
	6950 9050 6050 9050
Wire Wire Line
	6600 9250 6150 9250
Wire Wire Line
	6250 8350 5850 8350
Wire Wire Line
	5850 8350 5850 8850
Wire Wire Line
	5850 8850 5750 8850
Connection ~ 6250 8350
Wire Wire Line
	6250 8350 6250 8300
$Comp
L power:GNDD #PWR017
U 1 1 5FBB57E6
P 6250 8800
F 0 "#PWR017" H 6250 8550 50  0001 C CNN
F 1 "GNDD" H 6254 8645 50  0000 C CNN
F 2 "" H 6250 8800 50  0001 C CNN
F 3 "" H 6250 8800 50  0001 C CNN
	1    6250 8800
	-1   0    0    -1  
$EndComp
Wire Wire Line
	6250 8800 6250 8700
$Comp
L power:GNDD #PWR019
U 1 1 5FBB6073
P 5850 9550
F 0 "#PWR019" H 5850 9300 50  0001 C CNN
F 1 "GNDD" H 5854 9395 50  0000 C CNN
F 2 "" H 5850 9550 50  0001 C CNN
F 3 "" H 5850 9550 50  0001 C CNN
	1    5850 9550
	-1   0    0    -1  
$EndComp
Wire Wire Line
	5750 9450 5850 9450
Wire Wire Line
	5850 9450 5850 9550
$Comp
L Device:R R8
U 1 1 5FBC37BE
P 5100 9900
F 0 "R8" V 5050 10050 50  0000 L CNN
F 1 "0E" V 5050 9650 50  0000 L CNN
F 2 "Resistor_SMD:R_0603_1608Metric" V 5030 9900 50  0001 C CNN
F 3 "~" H 5100 9900 50  0001 C CNN
	1    5100 9900
	0    -1   1    0   
$EndComp
$Comp
L Device:R R9
U 1 1 5FBC4A29
P 5100 10200
F 0 "R9" V 5050 10350 50  0000 L CNN
F 1 "0E" V 5050 9950 50  0000 L CNN
F 2 "Resistor_SMD:R_0603_1608Metric" V 5030 10200 50  0001 C CNN
F 3 "~" H 5100 10200 50  0001 C CNN
	1    5100 10200
	0    -1   1    0   
$EndComp
Wire Wire Line
	6050 9050 6050 9900
Wire Wire Line
	6050 9900 5250 9900
Connection ~ 6050 9050
Wire Wire Line
	6050 9050 5750 9050
Wire Wire Line
	5250 10200 6150 10200
Wire Wire Line
	6150 10200 6150 9250
Connection ~ 6150 9250
Wire Wire Line
	6150 9250 5750 9250
$Comp
L Connector_Generic:Conn_01x04 J13
U 1 1 5FBC6C84
P 2250 9050
F 0 "J13" H 2200 9250 50  0000 L CNN
F 1 "I2C" H 2200 8750 50  0000 L CNN
F 2 "Phoenix_Contact:PTSA-3.5mm-4pins" H 2250 9050 50  0001 C CNN
F 3 "~" H 2250 9050 50  0001 C CNN
F 4 "1985218" H 2250 9050 50  0001 C CNN "PartNumber"
	1    2250 9050
	-1   0    0    -1  
$EndComp
$Comp
L power:VDD #PWR037
U 1 1 5FBCD146
P 4200 8300
F 0 "#PWR037" H 4200 8150 50  0001 C CNN
F 1 "VDD" H 4215 8473 50  0000 C CNN
F 2 "" H 4200 8300 50  0001 C CNN
F 3 "" H 4200 8300 50  0001 C CNN
	1    4200 8300
	-1   0    0    -1  
$EndComp
Wire Wire Line
	4450 8850 4350 8850
Wire Wire Line
	4350 8850 4350 8350
Wire Wire Line
	4350 8350 4200 8350
Wire Wire Line
	4200 8350 4200 8300
Wire Wire Line
	4200 8400 4200 8350
Connection ~ 4200 8350
Wire Wire Line
	4200 8800 4200 8700
$Comp
L power:VDD #PWR046
U 1 1 5FBD6AFA
P 2950 8300
F 0 "#PWR046" H 2950 8150 50  0001 C CNN
F 1 "VDD" H 2965 8473 50  0000 C CNN
F 2 "" H 2950 8300 50  0001 C CNN
F 3 "" H 2950 8300 50  0001 C CNN
	1    2950 8300
	-1   0    0    -1  
$EndComp
$Comp
L Device:C C23
U 1 1 5FBDA501
P 2950 8550
F 0 "C23" H 3065 8596 50  0000 L CNN
F 1 "1uF" H 3065 8505 50  0000 L CNN
F 2 "Capacitor_SMD:C_0603_1608Metric" H 2988 8400 50  0001 C CNN
F 3 "~" H 2950 8550 50  0001 C CNN
F 4 "C0603C105K4RAC7411" H 2950 8550 50  0001 C CNN "PartNumber"
	1    2950 8550
	-1   0    0    -1  
$EndComp
Wire Wire Line
	2450 8950 2550 8950
Wire Wire Line
	2550 8950 2550 8350
Wire Wire Line
	2550 8350 2950 8350
Wire Wire Line
	2950 8300 2950 8350
Connection ~ 2950 8350
Wire Wire Line
	2950 8350 2950 8400
Wire Wire Line
	2950 8800 2950 8700
Wire Wire Line
	2450 9250 2550 9250
Wire Wire Line
	2550 9250 2550 9350
Wire Wire Line
	4450 9250 4350 9250
Wire Wire Line
	4350 9250 4350 9150
Wire Wire Line
	4450 9450 4350 9450
Wire Wire Line
	4350 9450 4350 9550
$Comp
L power:GND2 #PWR034
U 1 1 5FBEA941
P 4350 9550
F 0 "#PWR034" H 4350 9300 50  0001 C CNN
F 1 "GND2" H 4355 9377 50  0000 C CNN
F 2 "" H 4350 9550 50  0001 C CNN
F 3 "" H 4350 9550 50  0001 C CNN
	1    4350 9550
	-1   0    0    -1  
$EndComp
$Comp
L power:GND2 #PWR038
U 1 1 5FBEAD6E
P 4200 8800
F 0 "#PWR038" H 4200 8550 50  0001 C CNN
F 1 "GND2" H 4205 8627 50  0000 C CNN
F 2 "" H 4200 8800 50  0001 C CNN
F 3 "" H 4200 8800 50  0001 C CNN
	1    4200 8800
	-1   0    0    -1  
$EndComp
$Comp
L power:GND2 #PWR047
U 1 1 5FBEB804
P 2950 8800
F 0 "#PWR047" H 2950 8550 50  0001 C CNN
F 1 "GND2" H 2955 8627 50  0000 C CNN
F 2 "" H 2950 8800 50  0001 C CNN
F 3 "" H 2950 8800 50  0001 C CNN
	1    2950 8800
	-1   0    0    -1  
$EndComp
$Comp
L power:GND2 #PWR048
U 1 1 5FBEBB09
P 2550 9350
F 0 "#PWR048" H 2550 9100 50  0001 C CNN
F 1 "GND2" H 2555 9177 50  0000 C CNN
F 2 "" H 2550 9350 50  0001 C CNN
F 3 "" H 2550 9350 50  0001 C CNN
	1    2550 9350
	-1   0    0    -1  
$EndComp
$Comp
L Device:R R12
U 1 1 5FBF26F3
P 3350 8550
F 0 "R12" H 3420 8596 50  0000 L CNN
F 1 "1k" H 3420 8505 50  0000 L CNN
F 2 "Resistor_SMD:R_0603_1608Metric" V 3280 8550 50  0001 C CNN
F 3 "~" H 3350 8550 50  0001 C CNN
	1    3350 8550
	-1   0    0    -1  
$EndComp
$Comp
L power:VDD #PWR039
U 1 1 5FBF2A7B
P 3650 8300
F 0 "#PWR039" H 3650 8150 50  0001 C CNN
F 1 "VDD" H 3665 8473 50  0000 C CNN
F 2 "" H 3650 8300 50  0001 C CNN
F 3 "" H 3650 8300 50  0001 C CNN
	1    3650 8300
	-1   0    0    -1  
$EndComp
$Comp
L power:VDD #PWR042
U 1 1 5FBF2EA5
P 3350 8300
F 0 "#PWR042" H 3350 8150 50  0001 C CNN
F 1 "VDD" H 3365 8473 50  0000 C CNN
F 2 "" H 3350 8300 50  0001 C CNN
F 3 "" H 3350 8300 50  0001 C CNN
	1    3350 8300
	-1   0    0    -1  
$EndComp
Wire Wire Line
	4450 9050 4150 9050
Wire Wire Line
	4350 9150 4050 9150
Wire Wire Line
	3650 8700 3650 9050
Connection ~ 3650 9050
Wire Wire Line
	3650 9050 2450 9050
Wire Wire Line
	3350 8700 3350 9150
Connection ~ 3350 9150
Wire Wire Line
	3350 9150 2450 9150
Wire Wire Line
	3350 8400 3350 8300
Wire Wire Line
	3650 8400 3650 8300
Wire Wire Line
	4950 9900 4150 9900
Wire Wire Line
	4150 9900 4150 9050
Connection ~ 4150 9050
Wire Wire Line
	4150 9050 3650 9050
Wire Wire Line
	4050 10200 4050 9150
Connection ~ 4050 9150
Wire Wire Line
	4050 9150 3350 9150
Wire Wire Line
	4950 10200 4050 10200
$Comp
L Graphic:Logo_Open_Hardware_Large #LOGO1
U 1 1 5FC1F14A
P 11900 8900
F 0 "#LOGO1" H 11900 9400 50  0001 C CNN
F 1 "Logo_Open_Hardware_Large" H 11900 8500 50  0001 C CNN
F 2 "" H 11900 8900 50  0001 C CNN
F 3 "~" H 11900 8900 50  0001 C CNN
	1    11900 8900
	1    0    0    -1  
$EndComp
$Comp
L Connector_Generic:Conn_01x02 J14
U 1 1 5FC34B9D
P 13000 5300
F 0 "J14" H 12950 5400 50  0000 L CNN
F 1 "LOUT" H 12950 5100 50  0000 L CNN
F 2 "Phoenix_Contact:PTSA-3.5mm-2pins" H 13000 5300 50  0001 C CNN
F 3 "~" H 13000 5300 50  0001 C CNN
F 4 "1985195" H 13000 5300 50  0001 C CNN "PartNumber"
	1    13000 5300
	1    0    0    -1  
$EndComp
$Comp
L Connector_Generic:Conn_01x02 J15
U 1 1 5FC34FA4
P 13000 5850
F 0 "J15" H 12950 5950 50  0000 L CNN
F 1 "ROUT" H 12950 5650 50  0000 L CNN
F 2 "Phoenix_Contact:PTSA-3.5mm-2pins" H 13000 5850 50  0001 C CNN
F 3 "~" H 13000 5850 50  0001 C CNN
F 4 "1985195" H 13000 5850 50  0001 C CNN "PartNumber"
	1    13000 5850
	1    0    0    -1  
$EndComp
$Comp
L power:GNDA #PWR060
U 1 1 5FC364D0
P 12700 6050
F 0 "#PWR060" H 12700 5800 50  0001 C CNN
F 1 "GNDA" H 12705 5877 50  0000 C CNN
F 2 "" H 12700 6050 50  0001 C CNN
F 3 "" H 12700 6050 50  0001 C CNN
	1    12700 6050
	1    0    0    -1  
$EndComp
Wire Wire Line
	12800 5950 12700 5950
Wire Wire Line
	12700 5950 12700 6050
$Comp
L power:GNDA #PWR059
U 1 1 5FC38613
P 12700 5500
F 0 "#PWR059" H 12700 5250 50  0001 C CNN
F 1 "GNDA" H 12705 5327 50  0000 C CNN
F 2 "" H 12700 5500 50  0001 C CNN
F 3 "" H 12700 5500 50  0001 C CNN
	1    12700 5500
	1    0    0    -1  
$EndComp
Wire Wire Line
	12800 5400 12700 5400
Wire Wire Line
	12700 5400 12700 5500
$Comp
L Connector_Generic:Conn_01x02 J9
U 1 1 5FC479F9
P 7150 4850
F 0 "J9" H 7100 4950 50  0000 L CNN
F 1 "LIn1" H 7250 4850 50  0000 L CNN
F 2 "Phoenix_Contact:PTSA-3.5mm-2pins" H 7150 4850 50  0001 C CNN
F 3 "~" H 7150 4850 50  0001 C CNN
F 4 "1985195" H 7150 4850 50  0001 C CNN "PartNumber"
	1    7150 4850
	-1   0    0    -1  
$EndComp
$Comp
L Connector_Generic:Conn_01x02 J4
U 1 1 5FC4868E
P 6400 5050
F 0 "J4" H 6350 5150 50  0000 L CNN
F 1 "LIn2" H 6500 5050 50  0000 L CNN
F 2 "Phoenix_Contact:PTSA-3.5mm-2pins" H 6400 5050 50  0001 C CNN
F 3 "~" H 6400 5050 50  0001 C CNN
F 4 "1985195" H 6400 5050 50  0001 C CNN "PartNumber"
	1    6400 5050
	-1   0    0    -1  
$EndComp
$Comp
L Connector_Generic:Conn_01x02 J10
U 1 1 5FC48A81
P 7150 5250
F 0 "J10" H 7100 5350 50  0000 L CNN
F 1 "LIn3" H 7250 5250 50  0000 L CNN
F 2 "Phoenix_Contact:PTSA-3.5mm-2pins" H 7150 5250 50  0001 C CNN
F 3 "~" H 7150 5250 50  0001 C CNN
F 4 "1985195" H 7150 5250 50  0001 C CNN "PartNumber"
	1    7150 5250
	-1   0    0    -1  
$EndComp
$Comp
L Connector_Generic:Conn_01x02 J5
U 1 1 5FC48DE9
P 4100 5200
F 0 "J5" H 4050 5300 50  0000 L CNN
F 1 "LIn4" H 4200 5200 50  0000 L CNN
F 2 "Phoenix_Contact:PTSA-3.5mm-2pins" H 4100 5200 50  0001 C CNN
F 3 "~" H 4100 5200 50  0001 C CNN
F 4 "1985195" H 4100 5200 50  0001 C CNN "PartNumber"
	1    4100 5200
	-1   0    0    -1  
$EndComp
$Comp
L Device:C C8
U 1 1 5FC4B39E
P 7900 4850
F 0 "C8" V 7800 4650 50  0000 L CNN
F 1 "470nF" V 7800 4900 50  0000 L CNN
F 2 "Capacitor_SMD:C_0603_1608Metric" H 7938 4700 50  0001 C CNN
F 3 "~" H 7900 4850 50  0001 C CNN
F 4 "885012206075" V 7900 4850 50  0001 C CNN "PartNumber"
	1    7900 4850
	0    1    1    0   
$EndComp
$Comp
L Device:C C9
U 1 1 5FC4EA2F
P 7900 5050
F 0 "C9" V 7800 4850 50  0000 L CNN
F 1 "470nF" V 7800 5100 50  0000 L CNN
F 2 "Capacitor_SMD:C_0603_1608Metric" H 7938 4900 50  0001 C CNN
F 3 "~" H 7900 5050 50  0001 C CNN
F 4 "885012206075" V 7900 5050 50  0001 C CNN "PartNumber"
	1    7900 5050
	0    1    1    0   
$EndComp
$Comp
L Device:C C10
U 1 1 5FC4EE37
P 7900 5250
F 0 "C10" V 7800 5050 50  0000 L CNN
F 1 "470nF" V 7800 5300 50  0000 L CNN
F 2 "Capacitor_SMD:C_0603_1608Metric" H 7938 5100 50  0001 C CNN
F 3 "~" H 7900 5250 50  0001 C CNN
F 4 "885012206075" V 7900 5250 50  0001 C CNN "PartNumber"
	1    7900 5250
	0    1    1    0   
$EndComp
$Comp
L Device:C C11
U 1 1 5FC4F6C0
P 7900 5450
F 0 "C11" V 7800 5250 50  0000 L CNN
F 1 "470nF" V 7800 5500 50  0000 L CNN
F 2 "Capacitor_SMD:C_0603_1608Metric" H 7938 5300 50  0001 C CNN
F 3 "~" H 7900 5450 50  0001 C CNN
F 4 "885012206075" V 7900 5450 50  0001 C CNN "PartNumber"
	1    7900 5450
	0    1    1    0   
$EndComp
$Comp
L Device:C C12
U 1 1 5FC4FF7A
P 7900 5750
F 0 "C12" V 7800 5550 50  0000 L CNN
F 1 "470nF" V 7800 5800 50  0000 L CNN
F 2 "Capacitor_SMD:C_0603_1608Metric" H 7938 5600 50  0001 C CNN
F 3 "~" H 7900 5750 50  0001 C CNN
F 4 "885012206075" V 7900 5750 50  0001 C CNN "PartNumber"
	1    7900 5750
	0    1    1    0   
$EndComp
$Comp
L Device:C C13
U 1 1 5FC5050C
P 7900 5950
F 0 "C13" V 7800 5750 50  0000 L CNN
F 1 "470nF" V 7800 6000 50  0000 L CNN
F 2 "Capacitor_SMD:C_0603_1608Metric" H 7938 5800 50  0001 C CNN
F 3 "~" H 7900 5950 50  0001 C CNN
F 4 "885012206075" V 7900 5950 50  0001 C CNN "PartNumber"
	1    7900 5950
	0    1    1    0   
$EndComp
$Comp
L Device:C C14
U 1 1 5FC50838
P 7900 6150
F 0 "C14" V 7800 5950 50  0000 L CNN
F 1 "470nF" V 7800 6200 50  0000 L CNN
F 2 "Capacitor_SMD:C_0603_1608Metric" H 7938 6000 50  0001 C CNN
F 3 "~" H 7900 6150 50  0001 C CNN
F 4 "885012206075" V 7900 6150 50  0001 C CNN "PartNumber"
	1    7900 6150
	0    1    1    0   
$EndComp
Wire Wire Line
	8250 4850 8050 4850
Wire Wire Line
	8250 5050 8050 5050
Wire Wire Line
	8250 5250 8050 5250
Wire Wire Line
	8250 5450 8050 5450
Wire Wire Line
	8250 5750 8050 5750
Wire Wire Line
	8250 5950 8050 5950
Wire Wire Line
	8250 6150 8050 6150
$Comp
L power:GNDA #PWR020
U 1 1 5FC6CC86
P 6700 5250
F 0 "#PWR020" H 6700 5000 50  0001 C CNN
F 1 "GNDA" H 6700 5100 50  0000 C CNN
F 2 "" H 6700 5250 50  0001 C CNN
F 3 "" H 6700 5250 50  0001 C CNN
	1    6700 5250
	1    0    0    -1  
$EndComp
Wire Wire Line
	6700 5250 6700 5150
Wire Wire Line
	6600 5150 6700 5150
Wire Wire Line
	7350 4850 7750 4850
Wire Wire Line
	6600 5050 7750 5050
Wire Wire Line
	7750 5250 7350 5250
$Comp
L power:GNDA #PWR030
U 1 1 5FC8A9D2
P 7350 4950
F 0 "#PWR030" H 7350 4700 50  0001 C CNN
F 1 "GNDA" V 7350 4750 50  0000 C CNN
F 2 "" H 7350 4950 50  0001 C CNN
F 3 "" H 7350 4950 50  0001 C CNN
	1    7350 4950
	0    -1   -1   0   
$EndComp
$Comp
L power:GNDA #PWR031
U 1 1 5FC8B420
P 7350 5350
F 0 "#PWR031" H 7350 5100 50  0001 C CNN
F 1 "GNDA" V 7350 5150 50  0000 C CNN
F 2 "" H 7350 5350 50  0001 C CNN
F 3 "" H 7350 5350 50  0001 C CNN
	1    7350 5350
	0    -1   -1   0   
$EndComp
$Comp
L Connector_Generic:Conn_01x02 J11
U 1 1 5FC92E3F
P 7150 5750
F 0 "J11" H 7100 5850 50  0000 L CNN
F 1 "RIn1" H 7250 5750 50  0000 L CNN
F 2 "Phoenix_Contact:PTSA-3.5mm-2pins" H 7150 5750 50  0001 C CNN
F 3 "~" H 7150 5750 50  0001 C CNN
F 4 "1985195" H 7150 5750 50  0001 C CNN "PartNumber"
	1    7150 5750
	-1   0    0    -1  
$EndComp
$Comp
L Connector_Generic:Conn_01x02 J6
U 1 1 5FC92E45
P 6400 5950
F 0 "J6" H 6350 6050 50  0000 L CNN
F 1 "RIn2" H 6500 5950 50  0000 L CNN
F 2 "Phoenix_Contact:PTSA-3.5mm-2pins" H 6400 5950 50  0001 C CNN
F 3 "~" H 6400 5950 50  0001 C CNN
F 4 "1985195" H 6400 5950 50  0001 C CNN "PartNumber"
	1    6400 5950
	-1   0    0    -1  
$EndComp
$Comp
L Connector_Generic:Conn_01x02 J12
U 1 1 5FC92E4B
P 7150 6150
F 0 "J12" H 7100 6250 50  0000 L CNN
F 1 "RIn3" H 7250 6150 50  0000 L CNN
F 2 "Phoenix_Contact:PTSA-3.5mm-2pins" H 7150 6150 50  0001 C CNN
F 3 "~" H 7150 6150 50  0001 C CNN
F 4 "1985195" H 7150 6150 50  0001 C CNN "PartNumber"
	1    7150 6150
	-1   0    0    -1  
$EndComp
$Comp
L power:GNDA #PWR022
U 1 1 5FC92E57
P 6700 6150
F 0 "#PWR022" H 6700 5900 50  0001 C CNN
F 1 "GNDA" H 6700 6000 50  0000 C CNN
F 2 "" H 6700 6150 50  0001 C CNN
F 3 "" H 6700 6150 50  0001 C CNN
	1    6700 6150
	1    0    0    -1  
$EndComp
Wire Wire Line
	6700 6150 6700 6050
Wire Wire Line
	6600 6050 6700 6050
Wire Wire Line
	7350 5750 7750 5750
Wire Wire Line
	6600 5950 7750 5950
Wire Wire Line
	7750 6150 7350 6150
$Comp
L power:GNDA #PWR032
U 1 1 5FC92E63
P 7350 5850
F 0 "#PWR032" H 7350 5600 50  0001 C CNN
F 1 "GNDA" V 7350 5650 50  0000 C CNN
F 2 "" H 7350 5850 50  0001 C CNN
F 3 "" H 7350 5850 50  0001 C CNN
	1    7350 5850
	0    -1   -1   0   
$EndComp
$Comp
L power:GNDA #PWR033
U 1 1 5FC92E69
P 7350 6250
F 0 "#PWR033" H 7350 6000 50  0001 C CNN
F 1 "GNDA" V 7350 6050 50  0000 C CNN
F 2 "" H 7350 6250 50  0001 C CNN
F 3 "" H 7350 6250 50  0001 C CNN
	1    7350 6250
	0    -1   -1   0   
$EndComp
$Comp
L Device:C C20
U 1 1 5FC99491
P 9000 6900
F 0 "C20" H 8700 6900 50  0000 L CNN
F 1 "5n6" H 8700 6800 50  0000 L CNN
F 2 "Capacitor_SMD:C_0603_1608Metric" H 9038 6750 50  0001 C CNN
F 3 "~" H 9000 6900 50  0001 C CNN
F 4 "06035C562KAT2A" H 9000 6900 50  0001 C CNN "PartNumber"
	1    9000 6900
	1    0    0    -1  
$EndComp
$Comp
L power:GNDA #PWR041
U 1 1 5FC9AA2C
P 9000 7050
F 0 "#PWR041" H 9000 6800 50  0001 C CNN
F 1 "GNDA" H 9005 6877 50  0000 C CNN
F 2 "" H 9000 7050 50  0001 C CNN
F 3 "" H 9000 7050 50  0001 C CNN
	1    9000 7050
	1    0    0    -1  
$EndComp
Wire Wire Line
	9000 6750 9000 6600
$Comp
L Device:C C22
U 1 1 5FC9F5B9
P 9300 6900
F 0 "C22" H 9050 6900 50  0000 L CNN
F 1 "18nF" H 9000 7000 50  0000 L CNN
F 2 "Capacitor_SMD:C_0603_1608Metric" H 9338 6750 50  0001 C CNN
F 3 "~" H 9300 6900 50  0001 C CNN
F 4 "C0603C183K5RACTU" H 9300 6900 50  0001 C CNN "PartNumber"
	1    9300 6900
	-1   0    0    1   
$EndComp
$Comp
L Device:C C25
U 1 1 5FC9FE19
P 9800 6900
F 0 "C25" H 9600 7000 50  0000 L CNN
F 1 "22nF" H 9550 7100 50  0000 L CNN
F 2 "Capacitor_SMD:C_0603_1608Metric" H 9838 6750 50  0001 C CNN
F 3 "~" H 9800 6900 50  0001 C CNN
F 4 "C0603C223K5RAC7411" H 9800 6900 50  0001 C CNN "PartNumber"
	1    9800 6900
	-1   0    0    1   
$EndComp
$Comp
L Device:R R14
U 1 1 5FCA2AA1
P 9550 7350
F 0 "R14" H 9650 7400 50  0000 L CNN
F 1 "2k7" H 9650 7300 50  0000 L CNN
F 2 "Resistor_SMD:R_0603_1608Metric" V 9480 7350 50  0001 C CNN
F 3 "~" H 9550 7350 50  0001 C CNN
	1    9550 7350
	1    0    0    -1  
$EndComp
$Comp
L power:GNDA #PWR045
U 1 1 5FCA3EFA
P 9550 7500
F 0 "#PWR045" H 9550 7250 50  0001 C CNN
F 1 "GNDA" H 9555 7327 50  0000 C CNN
F 2 "" H 9550 7500 50  0001 C CNN
F 3 "" H 9550 7500 50  0001 C CNN
	1    9550 7500
	1    0    0    -1  
$EndComp
Wire Wire Line
	9300 6750 9300 6600
Wire Wire Line
	9800 6750 9800 6600
Wire Wire Line
	9800 7050 9800 7150
Wire Wire Line
	9800 7150 9550 7150
Wire Wire Line
	9300 7150 9300 7050
Wire Wire Line
	9550 7200 9550 7150
Connection ~ 9550 7150
Wire Wire Line
	9550 7150 9300 7150
$Comp
L Device:C C27
U 1 1 5FCC39B2
P 10100 6900
F 0 "C27" H 9850 6900 50  0000 L CNN
F 1 "100nF" H 9750 7000 50  0000 L CNN
F 2 "Capacitor_SMD:C_0603_1608Metric" H 10138 6750 50  0001 C CNN
F 3 "~" H 10100 6900 50  0001 C CNN
F 4 "0603YC104MAT4A" H 10100 6900 50  0001 C CNN "PartNumber"
	1    10100 6900
	-1   0    0    1   
$EndComp
$Comp
L Device:C C30
U 1 1 5FCC39B8
P 10600 6900
F 0 "C30" H 10350 6900 50  0000 L CNN
F 1 "100nF" H 10250 7000 50  0000 L CNN
F 2 "Capacitor_SMD:C_0603_1608Metric" H 10638 6750 50  0001 C CNN
F 3 "~" H 10600 6900 50  0001 C CNN
F 4 "0603YC104MAT4A" H 10600 6900 50  0001 C CNN "PartNumber"
	1    10600 6900
	-1   0    0    1   
$EndComp
$Comp
L Device:R R16
U 1 1 5FCC39BE
P 10350 7350
F 0 "R16" H 10450 7400 50  0000 L CNN
F 1 "5k6" H 10450 7300 50  0000 L CNN
F 2 "Resistor_SMD:R_0603_1608Metric" V 10280 7350 50  0001 C CNN
F 3 "~" H 10350 7350 50  0001 C CNN
	1    10350 7350
	1    0    0    -1  
$EndComp
$Comp
L power:GNDA #PWR052
U 1 1 5FCC39C4
P 10350 7500
F 0 "#PWR052" H 10350 7250 50  0001 C CNN
F 1 "GNDA" H 10355 7327 50  0000 C CNN
F 2 "" H 10350 7500 50  0001 C CNN
F 3 "" H 10350 7500 50  0001 C CNN
	1    10350 7500
	1    0    0    -1  
$EndComp
Wire Wire Line
	10100 6750 10100 6600
Wire Wire Line
	10600 6750 10600 6600
Wire Wire Line
	10600 7050 10600 7150
Wire Wire Line
	10600 7150 10350 7150
Wire Wire Line
	10100 7150 10100 7050
Wire Wire Line
	10350 7200 10350 7150
Connection ~ 10350 7150
Wire Wire Line
	10350 7150 10100 7150
$Comp
L Device:C C31
U 1 1 5FCCBFD7
P 11000 6900
F 0 "C31" H 10700 6900 50  0000 L CNN
F 1 "10uF" H 10650 7000 50  0000 L CNN
F 2 "Capacitor_SMD:C_0805_2012Metric" H 11038 6750 50  0001 C CNN
F 3 "~" H 11000 6900 50  0001 C CNN
F 4 "CL21B106KOQNNNE" H 11000 6900 50  0001 C CNN "PartNumber"
	1    11000 6900
	-1   0    0    1   
$EndComp
$Comp
L power:GNDA #PWR053
U 1 1 5FCCC466
P 11000 7050
F 0 "#PWR053" H 11000 6800 50  0001 C CNN
F 1 "GNDA" H 11005 6877 50  0000 C CNN
F 2 "" H 11000 7050 50  0001 C CNN
F 3 "" H 11000 7050 50  0001 C CNN
	1    11000 7050
	1    0    0    -1  
$EndComp
Wire Wire Line
	11000 6750 11000 6600
$Comp
L Device:C C19
U 1 1 5FCDFEF5
P 9000 4300
F 0 "C19" H 8700 4300 50  0000 L CNN
F 1 "5n6" H 8700 4400 50  0000 L CNN
F 2 "Capacitor_SMD:C_0603_1608Metric" H 9038 4150 50  0001 C CNN
F 3 "~" H 9000 4300 50  0001 C CNN
F 4 "06035C562KAT2A" H 9000 4300 50  0001 C CNN "PartNumber"
	1    9000 4300
	1    0    0    1   
$EndComp
$Comp
L power:GNDA #PWR040
U 1 1 5FCDFEFB
P 9000 4150
F 0 "#PWR040" H 9000 3900 50  0001 C CNN
F 1 "GNDA" H 9005 3977 50  0000 C CNN
F 2 "" H 9000 4150 50  0001 C CNN
F 3 "" H 9000 4150 50  0001 C CNN
	1    9000 4150
	1    0    0    1   
$EndComp
Wire Wire Line
	9000 4450 9000 4600
$Comp
L Device:C C21
U 1 1 5FCDFF02
P 9300 4300
F 0 "C21" H 9050 4300 50  0000 L CNN
F 1 "18nF" H 9000 4200 50  0000 L CNN
F 2 "Capacitor_SMD:C_0603_1608Metric" H 9338 4150 50  0001 C CNN
F 3 "~" H 9300 4300 50  0001 C CNN
F 4 "C0603C183K5RACTU" H 9300 4300 50  0001 C CNN "PartNumber"
	1    9300 4300
	-1   0    0    -1  
$EndComp
$Comp
L Device:C C24
U 1 1 5FCDFF08
P 9800 4300
F 0 "C24" H 9600 4200 50  0000 L CNN
F 1 "22nF" H 9550 4100 50  0000 L CNN
F 2 "Capacitor_SMD:C_0603_1608Metric" H 9838 4150 50  0001 C CNN
F 3 "~" H 9800 4300 50  0001 C CNN
F 4 "C0603C223K5RAC7411" H 9800 4300 50  0001 C CNN "PartNumber"
	1    9800 4300
	-1   0    0    -1  
$EndComp
$Comp
L Device:R R13
U 1 1 5FCDFF0E
P 9550 3850
F 0 "R13" H 9650 3800 50  0000 L CNN
F 1 "2k7" H 9650 3900 50  0000 L CNN
F 2 "Resistor_SMD:R_0603_1608Metric" V 9480 3850 50  0001 C CNN
F 3 "~" H 9550 3850 50  0001 C CNN
	1    9550 3850
	1    0    0    1   
$EndComp
$Comp
L power:GNDA #PWR044
U 1 1 5FCDFF14
P 9550 3700
F 0 "#PWR044" H 9550 3450 50  0001 C CNN
F 1 "GNDA" H 9555 3527 50  0000 C CNN
F 2 "" H 9550 3700 50  0001 C CNN
F 3 "" H 9550 3700 50  0001 C CNN
	1    9550 3700
	1    0    0    1   
$EndComp
Wire Wire Line
	9300 4450 9300 4600
Wire Wire Line
	9800 4450 9800 4600
Wire Wire Line
	9800 4150 9800 4050
Wire Wire Line
	9800 4050 9550 4050
Wire Wire Line
	9300 4050 9300 4150
Wire Wire Line
	9550 4000 9550 4050
Connection ~ 9550 4050
Wire Wire Line
	9550 4050 9300 4050
Wire Wire Line
	10350 4050 10100 4050
Connection ~ 10350 4050
Wire Wire Line
	10350 4000 10350 4050
Wire Wire Line
	10100 4050 10100 4150
Wire Wire Line
	10600 4050 10350 4050
Wire Wire Line
	10600 4150 10600 4050
Wire Wire Line
	10600 4450 10600 4600
Wire Wire Line
	10100 4450 10100 4600
$Comp
L power:GNDA #PWR051
U 1 1 5FCDFF34
P 10350 3700
F 0 "#PWR051" H 10350 3450 50  0001 C CNN
F 1 "GNDA" H 10355 3527 50  0000 C CNN
F 2 "" H 10350 3700 50  0001 C CNN
F 3 "" H 10350 3700 50  0001 C CNN
	1    10350 3700
	1    0    0    1   
$EndComp
$Comp
L Device:R R15
U 1 1 5FCDFF2E
P 10350 3850
F 0 "R15" H 10450 3800 50  0000 L CNN
F 1 "5k6" H 10450 3900 50  0000 L CNN
F 2 "Resistor_SMD:R_0603_1608Metric" V 10280 3850 50  0001 C CNN
F 3 "~" H 10350 3850 50  0001 C CNN
	1    10350 3850
	1    0    0    1   
$EndComp
$Comp
L Device:C C29
U 1 1 5FCDFF28
P 10600 4300
F 0 "C29" H 10350 4300 50  0000 L CNN
F 1 "100nF" H 10250 4200 50  0000 L CNN
F 2 "Capacitor_SMD:C_0603_1608Metric" H 10638 4150 50  0001 C CNN
F 3 "~" H 10600 4300 50  0001 C CNN
F 4 "0603YC104MAT4A" H 10600 4300 50  0001 C CNN "PartNumber"
	1    10600 4300
	-1   0    0    -1  
$EndComp
$Comp
L Device:C C26
U 1 1 5FCDFF22
P 10100 4300
F 0 "C26" H 9850 4300 50  0000 L CNN
F 1 "100nF" H 9750 4200 50  0000 L CNN
F 2 "Capacitor_SMD:C_0603_1608Metric" H 10138 4150 50  0001 C CNN
F 3 "~" H 10100 4300 50  0001 C CNN
F 4 "0603YC104MAT4A" H 10100 4300 50  0001 C CNN "PartNumber"
	1    10100 4300
	-1   0    0    -1  
$EndComp
$Comp
L power:+3V3 #PWR05
U 1 1 5FE2C52C
P 3000 5350
F 0 "#PWR05" H 3000 5200 50  0001 C CNN
F 1 "+3V3" H 3015 5523 50  0000 C CNN
F 2 "" H 3000 5350 50  0001 C CNN
F 3 "" H 3000 5350 50  0001 C CNN
	1    3000 5350
	1    0    0    -1  
$EndComp
$Comp
L power:+9V #PWR02
U 1 1 5FE2FAA4
P 2650 5350
F 0 "#PWR02" H 2650 5200 50  0001 C CNN
F 1 "+9V" H 2665 5523 50  0000 C CNN
F 2 "" H 2650 5350 50  0001 C CNN
F 3 "" H 2650 5350 50  0001 C CNN
	1    2650 5350
	1    0    0    -1  
$EndComp
$Comp
L power:GNDA #PWR04
U 1 1 5FE301A5
P 2850 2800
F 0 "#PWR04" H 2850 2550 50  0001 C CNN
F 1 "GNDA" H 2855 2627 50  0000 C CNN
F 2 "" H 2850 2800 50  0001 C CNN
F 3 "" H 2850 2800 50  0001 C CNN
	1    2850 2800
	1    0    0    -1  
$EndComp
$Comp
L Mechanical:MountingHole H2
U 1 1 5FE38716
P 12000 7650
F 0 "H2" H 12100 7696 50  0000 L CNN
F 1 "MountingHole" H 12100 7605 50  0000 L CNN
F 2 "MountingHole:MountingHole_3.2mm_M3" H 12000 7650 50  0001 C CNN
F 3 "~" H 12000 7650 50  0001 C CNN
	1    12000 7650
	1    0    0    -1  
$EndComp
$Comp
L Mechanical:MountingHole H1
U 1 1 5FE3F714
P 12000 7450
F 0 "H1" H 12100 7496 50  0000 L CNN
F 1 "MountingHole" H 12100 7405 50  0000 L CNN
F 2 "MountingHole:MountingHole_3.2mm_M3" H 12000 7450 50  0001 C CNN
F 3 "~" H 12000 7450 50  0001 C CNN
	1    12000 7450
	1    0    0    -1  
$EndComp
$Comp
L Mechanical:MountingHole H3
U 1 1 5FE3FC26
P 12850 7450
F 0 "H3" H 12950 7496 50  0000 L CNN
F 1 "MountingHole" H 12950 7405 50  0000 L CNN
F 2 "MountingHole:MountingHole_3.2mm_M3" H 12850 7450 50  0001 C CNN
F 3 "~" H 12850 7450 50  0001 C CNN
	1    12850 7450
	1    0    0    -1  
$EndComp
$Comp
L Mechanical:MountingHole H4
U 1 1 5FE40134
P 12850 7650
F 0 "H4" H 12950 7696 50  0000 L CNN
F 1 "MountingHole" H 12950 7605 50  0000 L CNN
F 2 "MountingHole:MountingHole_3.2mm_M3" H 12850 7650 50  0001 C CNN
F 3 "~" H 12850 7650 50  0001 C CNN
	1    12850 7650
	1    0    0    -1  
$EndComp
$Comp
L ON_Semiconductor:NCP711ASN330T1G U4
U 1 1 5FE49B13
P 8900 2050
F 0 "U4" H 8900 2465 50  0000 C CNN
F 1 "NCP711ASN330T1G" H 8900 2374 50  0000 C CNN
F 2 "Package_SO:TSOP-5_1.65x3.05mm_P0.95mm" H 8750 2600 50  0001 C CNN
F 3 "" H 8750 2600 50  0001 C CNN
	1    8900 2050
	1    0    0    -1  
$EndComp
$Comp
L Device:R R10
U 1 1 5FE4CB05
P 8150 2100
F 0 "R10" V 8050 1850 50  0000 L CNN
F 1 "100k" V 8050 2200 50  0000 L CNN
F 2 "Resistor_SMD:R_0603_1608Metric" V 8080 2100 50  0001 C CNN
F 3 "~" H 8150 2100 50  0001 C CNN
	1    8150 2100
	0    1    1    0   
$EndComp
Wire Wire Line
	8450 1900 7850 1900
Wire Wire Line
	8000 2100 7850 2100
Wire Wire Line
	7850 2100 7850 1900
Connection ~ 7850 1900
$Comp
L power:GNDA #PWR043
U 1 1 5FE5EDE4
P 8900 2450
F 0 "#PWR043" H 8900 2200 50  0001 C CNN
F 1 "GNDA" H 8905 2277 50  0000 C CNN
F 2 "" H 8900 2450 50  0001 C CNN
F 3 "" H 8900 2450 50  0001 C CNN
	1    8900 2450
	1    0    0    -1  
$EndComp
$Comp
L Device:C C17
U 1 1 5FE6322D
P 7550 2150
F 0 "C17" H 7300 2150 50  0000 L CNN
F 1 "1uF" H 7300 2250 50  0000 L CNN
F 2 "Capacitor_SMD:C_0603_1608Metric" H 7588 2000 50  0001 C CNN
F 3 "~" H 7550 2150 50  0001 C CNN
F 4 "C0603C105K4RAC7411" H 7550 2150 50  0001 C CNN "PartNumber"
	1    7550 2150
	-1   0    0    1   
$EndComp
$Comp
L power:GNDA #PWR036
U 1 1 5FE6848A
P 7550 2450
F 0 "#PWR036" H 7550 2200 50  0001 C CNN
F 1 "GNDA" H 7555 2277 50  0000 C CNN
F 2 "" H 7550 2450 50  0001 C CNN
F 3 "" H 7550 2450 50  0001 C CNN
	1    7550 2450
	1    0    0    -1  
$EndComp
Wire Wire Line
	7550 2300 7550 2450
Wire Wire Line
	7550 2000 7550 1900
Wire Wire Line
	7550 1900 7850 1900
Wire Wire Line
	7550 1750 7550 1900
Connection ~ 7550 1900
$Comp
L power:+9V #PWR035
U 1 1 5FE77CE2
P 7550 1750
F 0 "#PWR035" H 7550 1600 50  0001 C CNN
F 1 "+9V" H 7565 1923 50  0000 C CNN
F 2 "" H 7550 1750 50  0001 C CNN
F 3 "" H 7550 1750 50  0001 C CNN
	1    7550 1750
	1    0    0    -1  
$EndComp
$Comp
L Device:C C28
U 1 1 5FE7D3C0
P 9700 2150
F 0 "C28" H 9450 2150 50  0000 L CNN
F 1 "1uF" H 9450 2250 50  0000 L CNN
F 2 "Capacitor_SMD:C_0603_1608Metric" H 9738 2000 50  0001 C CNN
F 3 "~" H 9700 2150 50  0001 C CNN
F 4 "C0603C105K4RAC7411" H 9700 2150 50  0001 C CNN "PartNumber"
	1    9700 2150
	-1   0    0    1   
$EndComp
$Comp
L power:GNDA #PWR050
U 1 1 5FE86319
P 9700 2450
F 0 "#PWR050" H 9700 2200 50  0001 C CNN
F 1 "GNDA" H 9705 2277 50  0000 C CNN
F 2 "" H 9700 2450 50  0001 C CNN
F 3 "" H 9700 2450 50  0001 C CNN
	1    9700 2450
	1    0    0    -1  
$EndComp
Wire Wire Line
	9700 2450 9700 2300
Wire Wire Line
	9350 1900 9700 1900
Wire Wire Line
	9700 1900 9700 1950
Wire Wire Line
	9700 1750 9700 1900
Connection ~ 9700 1900
$Comp
L power:GNDA #PWR09
U 1 1 5FEBD113
P 4200 3750
F 0 "#PWR09" H 4200 3500 50  0001 C CNN
F 1 "GNDA" H 4205 3577 50  0000 C CNN
F 2 "" H 4200 3750 50  0001 C CNN
F 3 "" H 4200 3750 50  0001 C CNN
	1    4200 3750
	1    0    0    -1  
$EndComp
Text Label 6850 9050 2    50   ~ 0
SDA
Text Label 6850 9250 2    50   ~ 0
SCL
Text Label 4050 9050 2    50   ~ 0
SDA_ISO
Text Label 4050 9150 2    50   ~ 0
SCL_ISO
Text Label 11700 5300 0    50   ~ 0
LOUT
Text Label 11700 5850 0    50   ~ 0
ROUT
Text Label 7400 4850 0    50   ~ 0
LIn1
Text Label 6650 5050 0    50   ~ 0
LIn2
Text Label 7400 5250 0    50   ~ 0
LIn3
Text Label 4350 5200 0    50   ~ 0
LIn4
Text Label 7400 5750 0    50   ~ 0
RIn1
Text Label 6650 5950 0    50   ~ 0
RIn2
Text Label 7400 6150 0    50   ~ 0
RIn3
$Comp
L Device:R R17
U 1 1 5FF0DB03
P 11950 6150
F 0 "R17" H 12050 6200 50  0000 L CNN
F 1 "10k" H 12050 6100 50  0000 L CNN
F 2 "Resistor_SMD:R_0603_1608Metric" V 11880 6150 50  0001 C CNN
F 3 "~" H 11950 6150 50  0001 C CNN
	1    11950 6150
	1    0    0    -1  
$EndComp
$Comp
L power:GNDA #PWR057
U 1 1 5FF0F314
P 11950 6450
F 0 "#PWR057" H 11950 6200 50  0001 C CNN
F 1 "GNDA" H 11955 6277 50  0000 C CNN
F 2 "" H 11950 6450 50  0001 C CNN
F 3 "" H 11950 6450 50  0001 C CNN
	1    11950 6450
	1    0    0    -1  
$EndComp
$Comp
L Device:R R18
U 1 1 5FF12F94
P 12300 6150
F 0 "R18" H 12400 6200 50  0000 L CNN
F 1 "10k" H 12400 6100 50  0000 L CNN
F 2 "Resistor_SMD:R_0603_1608Metric" V 12230 6150 50  0001 C CNN
F 3 "~" H 12300 6150 50  0001 C CNN
	1    12300 6150
	1    0    0    -1  
$EndComp
$Comp
L power:GNDA #PWR058
U 1 1 5FF1D8E5
P 12300 6450
F 0 "#PWR058" H 12300 6200 50  0001 C CNN
F 1 "GNDA" H 12305 6277 50  0000 C CNN
F 2 "" H 12300 6450 50  0001 C CNN
F 3 "" H 12300 6450 50  0001 C CNN
	1    12300 6450
	1    0    0    -1  
$EndComp
Wire Wire Line
	11550 5850 12300 5850
Wire Wire Line
	11550 5300 11950 5300
Wire Wire Line
	11950 5300 11950 6000
Connection ~ 11950 5300
Wire Wire Line
	11950 5300 12800 5300
Wire Wire Line
	12300 6000 12300 5850
Connection ~ 12300 5850
Wire Wire Line
	12300 5850 12800 5850
Wire Wire Line
	12300 6450 12300 6300
Wire Wire Line
	11950 6450 11950 6300
$Comp
L ON_Semiconductor:NCV47710PDAJR2G U2
U 1 1 5FF5B5EA
P 4800 2150
F 0 "U2" H 4825 2665 50  0000 C CNN
F 1 "NCV47710PDAJR2G" H 4825 2574 50  0000 C CNN
F 2 "Package_SO:SOIC-8-1EP_3.9x4.9mm_P1.27mm_EP2.41x3.3mm" H 4500 3050 50  0001 C CNN
F 3 "https://www.mouser.be/datasheet/2/308/NCV47710-D-1813105.pdf" H 4500 3050 50  0001 C CNN
	1    4800 2150
	1    0    0    -1  
$EndComp
$Comp
L power:GNDA #PWR010
U 1 1 6003B151
P 4750 2800
F 0 "#PWR010" H 4750 2550 50  0001 C CNN
F 1 "GNDA" H 4755 2627 50  0000 C CNN
F 2 "" H 4750 2800 50  0001 C CNN
F 3 "" H 4750 2800 50  0001 C CNN
	1    4750 2800
	1    0    0    -1  
$EndComp
Wire Wire Line
	4900 2650 4900 2700
Wire Wire Line
	4900 2700 4750 2700
Wire Wire Line
	4750 2700 4750 2650
Wire Wire Line
	4750 2700 4750 2800
Connection ~ 4750 2700
$Comp
L Device:C C3
U 1 1 60048DD7
P 3400 2150
F 0 "C3" H 3200 2150 50  0000 L CNN
F 1 "1uF, 100V" H 2950 2250 50  0000 L CNN
F 2 "Capacitor_SMD:C_0805_2012Metric" H 3438 2000 50  0001 C CNN
F 3 "~" H 3400 2150 50  0001 C CNN
F 4 "08051C105K4T2A" H 3400 2150 50  0001 C CNN "PartNumber"
	1    3400 2150
	-1   0    0    1   
$EndComp
$Comp
L Device:R R6
U 1 1 6004B01A
P 6150 2050
F 0 "R6" H 6220 2096 50  0000 L CNN
F 1 "68k" H 6220 2005 50  0000 L CNN
F 2 "Resistor_SMD:R_0603_1608Metric" V 6080 2050 50  0001 C CNN
F 3 "~" H 6150 2050 50  0001 C CNN
	1    6150 2050
	1    0    0    -1  
$EndComp
$Comp
L Device:R R7
U 1 1 6004F755
P 6150 2450
F 0 "R7" H 6220 2496 50  0000 L CNN
F 1 "11k" H 6220 2405 50  0000 L CNN
F 2 "Resistor_SMD:R_0603_1608Metric" V 6080 2450 50  0001 C CNN
F 3 "~" H 6150 2450 50  0001 C CNN
	1    6150 2450
	1    0    0    -1  
$EndComp
$Comp
L Device:C C5
U 1 1 6005DCDD
P 5450 2650
F 0 "C5" H 5250 2650 50  0000 L CNN
F 1 "1uF" H 5200 2750 50  0000 L CNN
F 2 "Capacitor_SMD:C_0603_1608Metric" H 5488 2500 50  0001 C CNN
F 3 "~" H 5450 2650 50  0001 C CNN
F 4 "C0603C105K4RAC7411" H 5450 2650 50  0001 C CNN "PartNumber"
	1    5450 2650
	-1   0    0    1   
$EndComp
$Comp
L Device:R R5
U 1 1 6005EA64
P 5800 2650
F 0 "R5" H 5850 2650 50  0000 L CNN
F 1 "5k1" H 5850 2550 50  0000 L CNN
F 2 "Resistor_SMD:R_0603_1608Metric" V 5730 2650 50  0001 C CNN
F 3 "~" H 5800 2650 50  0001 C CNN
	1    5800 2650
	1    0    0    -1  
$EndComp
$Comp
L power:GNDA #PWR015
U 1 1 60065C3A
P 5450 2800
F 0 "#PWR015" H 5450 2550 50  0001 C CNN
F 1 "GNDA" H 5455 2627 50  0000 C CNN
F 2 "" H 5450 2800 50  0001 C CNN
F 3 "" H 5450 2800 50  0001 C CNN
	1    5450 2800
	1    0    0    -1  
$EndComp
$Comp
L power:GNDA #PWR018
U 1 1 60066070
P 5800 2800
F 0 "#PWR018" H 5800 2550 50  0001 C CNN
F 1 "GNDA" H 5805 2627 50  0000 C CNN
F 2 "" H 5800 2800 50  0001 C CNN
F 3 "" H 5800 2800 50  0001 C CNN
	1    5800 2800
	1    0    0    -1  
$EndComp
Wire Wire Line
	5350 2400 5450 2400
Wire Wire Line
	5450 2400 5450 2500
Wire Wire Line
	5450 2400 5800 2400
Wire Wire Line
	5800 2400 5800 2500
Connection ~ 5450 2400
Wire Wire Line
	6150 2300 6150 2200
Wire Wire Line
	6150 2200 5350 2200
Connection ~ 6150 2200
Wire Wire Line
	6150 2600 6150 2800
$Comp
L power:GNDA #PWR025
U 1 1 6008EDC7
P 6150 2800
F 0 "#PWR025" H 6150 2550 50  0001 C CNN
F 1 "GNDA" H 6155 2627 50  0000 C CNN
F 2 "" H 6150 2800 50  0001 C CNN
F 3 "" H 6150 2800 50  0001 C CNN
	1    6150 2800
	1    0    0    -1  
$EndComp
$Comp
L power:GNDA #PWR029
U 1 1 60090208
P 6600 2800
F 0 "#PWR029" H 6600 2550 50  0001 C CNN
F 1 "GNDA" H 6605 2627 50  0000 C CNN
F 2 "" H 6600 2800 50  0001 C CNN
F 3 "" H 6600 2800 50  0001 C CNN
	1    6600 2800
	1    0    0    -1  
$EndComp
Wire Wire Line
	6600 2800 6600 2550
Wire Wire Line
	6600 1900 6150 1900
Connection ~ 6150 1900
$Comp
L Device:R R2
U 1 1 600A0A11
P 4000 2100
F 0 "R2" V 3900 1850 50  0000 L CNN
F 1 "100k" V 3900 2200 50  0000 L CNN
F 2 "Resistor_SMD:R_0603_1608Metric" V 3930 2100 50  0001 C CNN
F 3 "~" H 4000 2100 50  0001 C CNN
F 4 "ERJ-UP3F1003V" V 4000 2100 50  0001 C CNN "PartNumber"
	1    4000 2100
	0    1    1    0   
$EndComp
Wire Wire Line
	4300 2100 4200 2100
Wire Wire Line
	4300 1900 3700 1900
Wire Wire Line
	3850 2100 3700 2100
Wire Wire Line
	3700 2100 3700 1900
Connection ~ 3700 1900
$Comp
L power:GNDA #PWR07
U 1 1 600C050F
P 3400 2800
F 0 "#PWR07" H 3400 2550 50  0001 C CNN
F 1 "GNDA" H 3405 2627 50  0000 C CNN
F 2 "" H 3400 2800 50  0001 C CNN
F 3 "" H 3400 2800 50  0001 C CNN
	1    3400 2800
	1    0    0    -1  
$EndComp
Wire Wire Line
	3400 2800 3400 2300
Wire Wire Line
	3400 1900 3400 2000
Wire Wire Line
	3400 1900 3700 1900
$Comp
L power:+9V #PWR028
U 1 1 600D2960
P 6600 1750
F 0 "#PWR028" H 6600 1600 50  0001 C CNN
F 1 "+9V" H 6615 1923 50  0000 C CNN
F 2 "" H 6600 1750 50  0001 C CNN
F 3 "" H 6600 1750 50  0001 C CNN
	1    6600 1750
	1    0    0    -1  
$EndComp
Wire Wire Line
	6600 1750 6600 1900
Connection ~ 6600 1900
$Comp
L Device:CP C7
U 1 1 600E413E
P 6600 2400
F 0 "C7" H 6700 2400 50  0000 L CNN
F 1 "22uF, 16V" H 6700 2300 50  0000 L CNN
F 2 "Capacitor_SMD:CP_Elec_4x5.4" H 6638 2250 50  0001 C CNN
F 3 "~" H 6600 2400 50  0001 C CNN
F 4 "865080340003" H 6600 2400 50  0001 C CNN "PartNumber"
	1    6600 2400
	1    0    0    -1  
$EndComp
Wire Wire Line
	6600 1900 6600 2250
Wire Wire Line
	8300 2100 8450 2100
Connection ~ 4200 2100
Wire Wire Line
	4200 2100 4150 2100
Text Label 3250 3350 0    50   ~ 0
Disable
$Comp
L Device:R R1
U 1 1 601421CC
P 3650 3600
F 0 "R1" H 3720 3646 50  0000 L CNN
F 1 "DNP" H 3720 3555 50  0000 L CNN
F 2 "Resistor_SMD:R_0603_1608Metric" V 3580 3600 50  0001 C CNN
F 3 "~" H 3650 3600 50  0001 C CNN
	1    3650 3600
	1    0    0    -1  
$EndComp
$Comp
L power:GNDA #PWR08
U 1 1 601428CE
P 3650 3750
F 0 "#PWR08" H 3650 3500 50  0001 C CNN
F 1 "GNDA" H 3655 3577 50  0000 C CNN
F 2 "" H 3650 3750 50  0001 C CNN
F 3 "" H 3650 3750 50  0001 C CNN
	1    3650 3750
	1    0    0    -1  
$EndComp
Text Notes 4450 1500 0    50   ~ 0
Vout = 9 V\nIlim = 50 mA
$Comp
L Connector_Generic:Conn_01x02 J1
U 1 1 6016587C
P 2200 1900
F 0 "J1" H 2150 2000 50  0000 L CNN
F 1 "Vin" H 2150 1700 50  0000 L CNN
F 2 "Phoenix_Contact:PTSA-3.5mm-2pins" H 2200 1900 50  0001 C CNN
F 3 "~" H 2200 1900 50  0001 C CNN
F 4 "1985195" H 2200 1900 50  0001 C CNN "PartNumber"
	1    2200 1900
	-1   0    0    -1  
$EndComp
$Comp
L Device:CP C1
U 1 1 6016A836
P 2850 2150
F 0 "C1" H 2950 2150 50  0000 L CNN
F 1 "22uF, 63V" H 2950 2050 50  0000 L CNN
F 2 "Capacitor_SMD:CP_Elec_6.3x7.7" H 2888 2000 50  0001 C CNN
F 3 "~" H 2850 2150 50  0001 C CNN
F 4 "EEE-FK1J220XL" H 2850 2150 50  0001 C CNN "PartNumber"
	1    2850 2150
	1    0    0    -1  
$EndComp
Wire Wire Line
	2850 2800 2850 2300
Wire Wire Line
	3400 1900 2850 1900
Connection ~ 3400 1900
Wire Wire Line
	2850 2000 2850 1900
$Comp
L power:GNDA #PWR01
U 1 1 60194021
P 2500 2100
F 0 "#PWR01" H 2500 1850 50  0001 C CNN
F 1 "GNDA" H 2505 1927 50  0000 C CNN
F 2 "" H 2500 2100 50  0001 C CNN
F 3 "" H 2500 2100 50  0001 C CNN
	1    2500 2100
	1    0    0    -1  
$EndComp
Wire Wire Line
	2400 2000 2500 2000
Wire Wire Line
	2500 2000 2500 2100
Wire Wire Line
	2400 1900 2850 1900
Connection ~ 2850 1900
$Comp
L power:GNDA #PWR03
U 1 1 601C9A08
P 2650 6050
F 0 "#PWR03" H 2650 5800 50  0001 C CNN
F 1 "GNDA" H 2655 5877 50  0000 C CNN
F 2 "" H 2650 6050 50  0001 C CNN
F 3 "" H 2650 6050 50  0001 C CNN
	1    2650 6050
	1    0    0    -1  
$EndComp
Wire Wire Line
	2450 5550 2650 5550
Wire Wire Line
	2650 5550 2650 5350
Wire Wire Line
	2450 5750 3000 5750
Wire Wire Line
	3000 5750 3000 5350
Wire Wire Line
	2450 5650 2650 5650
Wire Wire Line
	2650 5650 2650 5850
Wire Wire Line
	2450 5850 2650 5850
Connection ~ 2650 5850
$Comp
L power:GNDA #PWR06
U 1 1 60320541
P 3000 6050
F 0 "#PWR06" H 3000 5800 50  0001 C CNN
F 1 "GNDA" H 3005 5877 50  0000 C CNN
F 2 "" H 3000 6050 50  0001 C CNN
F 3 "" H 3000 6050 50  0001 C CNN
	1    3000 6050
	1    0    0    -1  
$EndComp
Wire Wire Line
	2650 5850 2650 6050
$Comp
L Connector_Generic:Conn_01x02 J3
U 1 1 5FBA4E61
P 4100 5750
F 0 "J3" H 4050 5850 50  0000 L CNN
F 1 "LIn5" H 4200 5750 50  0000 L CNN
F 2 "Phoenix_Contact:PTSA-3.5mm-2pins" H 4100 5750 50  0001 C CNN
F 3 "~" H 4100 5750 50  0001 C CNN
F 4 "1985195" H 4100 5750 50  0001 C CNN "PartNumber"
	1    4100 5750
	-1   0    0    -1  
$EndComp
$Comp
L power:GNDA #PWR012
U 1 1 5FC21BF2
P 4400 5850
F 0 "#PWR012" H 4400 5600 50  0001 C CNN
F 1 "GNDA" V 4400 5600 50  0000 C CNN
F 2 "" H 4400 5850 50  0001 C CNN
F 3 "" H 4400 5850 50  0001 C CNN
	1    4400 5850
	0    -1   -1   0   
$EndComp
Wire Wire Line
	4300 5850 4400 5850
$Comp
L ON_Semiconductor:FSA4157 U6
U 1 1 5FC7AB99
P 5450 5550
F 0 "U6" H 5425 6015 50  0000 C CNN
F 1 "FSA4157" H 5425 5924 50  0000 C CNN
F 2 "ON_Semiconductor:CASE 419B−02" H 5450 5550 50  0001 C CNN
F 3 "" H 5450 5550 50  0001 C CNN
	1    5450 5550
	1    0    0    -1  
$EndComp
$Comp
L power:GNDA #PWR072
U 1 1 5FC802B8
P 5950 5850
F 0 "#PWR072" H 5950 5600 50  0001 C CNN
F 1 "GNDA" H 5950 5700 50  0000 C CNN
F 2 "" H 5950 5850 50  0001 C CNN
F 3 "" H 5950 5850 50  0001 C CNN
	1    5950 5850
	1    0    0    -1  
$EndComp
Wire Wire Line
	5850 5750 5950 5750
Wire Wire Line
	5950 5750 5950 5850
Wire Wire Line
	5850 5450 6100 5450
$Comp
L power:GNDA #PWR067
U 1 1 5FDBE9B8
P 4400 5400
F 0 "#PWR067" H 4400 5150 50  0001 C CNN
F 1 "GNDA" H 4400 5250 50  0000 C CNN
F 2 "" H 4400 5400 50  0001 C CNN
F 3 "" H 4400 5400 50  0001 C CNN
	1    4400 5400
	1    0    0    -1  
$EndComp
Wire Wire Line
	4300 5300 4400 5300
Wire Wire Line
	4400 5300 4400 5400
Wire Wire Line
	4600 5350 4600 5200
Wire Wire Line
	4600 5200 4300 5200
Wire Wire Line
	4600 5350 5000 5350
Wire Wire Line
	4600 5550 4600 5750
Wire Wire Line
	4300 5750 4600 5750
Wire Wire Line
	4600 5550 5000 5550
$Comp
L Device:C C15
U 1 1 5FC98B8A
P 5550 4650
F 0 "C15" H 5665 4696 50  0000 L CNN
F 1 "100nF" H 5665 4605 50  0000 L CNN
F 2 "Capacitor_SMD:C_0603_1608Metric" H 5588 4500 50  0001 C CNN
F 3 "~" H 5550 4650 50  0001 C CNN
F 4 "0603YC104MAT4A" H 5550 4650 50  0001 C CNN "PartNumber"
	1    5550 4650
	1    0    0    -1  
$EndComp
$Comp
L power:GNDA #PWR071
U 1 1 5FCA4829
P 5550 4800
F 0 "#PWR071" H 5550 4550 50  0001 C CNN
F 1 "GNDA" H 5550 4650 50  0000 C CNN
F 2 "" H 5550 4800 50  0001 C CNN
F 3 "" H 5550 4800 50  0001 C CNN
	1    5550 4800
	1    0    0    -1  
$EndComp
Text Label 4350 5750 0    50   ~ 0
LIn5
Text Label 6150 5450 0    50   ~ 0
L-In4
$Comp
L Connector_Generic:Conn_01x02 J7
U 1 1 5FD5EA88
P 4100 6400
F 0 "J7" H 4050 6500 50  0000 L CNN
F 1 "RIn4" H 4200 6400 50  0000 L CNN
F 2 "Phoenix_Contact:PTSA-3.5mm-2pins" H 4100 6400 50  0001 C CNN
F 3 "~" H 4100 6400 50  0001 C CNN
F 4 "1985195" H 4100 6400 50  0001 C CNN "PartNumber"
	1    4100 6400
	-1   0    0    -1  
$EndComp
Text Label 4350 6400 0    50   ~ 0
RIn4
$Comp
L Connector_Generic:Conn_01x02 J8
U 1 1 5FD5EA8F
P 4100 6950
F 0 "J8" H 4050 7050 50  0000 L CNN
F 1 "RIn5" H 4200 6950 50  0000 L CNN
F 2 "Phoenix_Contact:PTSA-3.5mm-2pins" H 4100 6950 50  0001 C CNN
F 3 "~" H 4100 6950 50  0001 C CNN
F 4 "1985195" H 4100 6950 50  0001 C CNN "PartNumber"
	1    4100 6950
	-1   0    0    -1  
$EndComp
$Comp
L power:GNDA #PWR069
U 1 1 5FD5EA95
P 4400 7150
F 0 "#PWR069" H 4400 6900 50  0001 C CNN
F 1 "GNDA" H 4400 7000 50  0000 C CNN
F 2 "" H 4400 7150 50  0001 C CNN
F 3 "" H 4400 7150 50  0001 C CNN
	1    4400 7150
	1    0    0    -1  
$EndComp
Wire Wire Line
	4300 7050 4400 7050
Wire Wire Line
	4400 7050 4400 7150
$Comp
L ON_Semiconductor:FSA4157 U7
U 1 1 5FD5EA9D
P 5450 6750
F 0 "U7" H 5425 7215 50  0000 C CNN
F 1 "FSA4157" H 5425 7124 50  0000 C CNN
F 2 "ON_Semiconductor:CASE 419B−02" H 5450 6750 50  0001 C CNN
F 3 "" H 5450 6750 50  0001 C CNN
	1    5450 6750
	1    0    0    -1  
$EndComp
$Comp
L power:GNDA #PWR073
U 1 1 5FD5EAA3
P 5950 7050
F 0 "#PWR073" H 5950 6800 50  0001 C CNN
F 1 "GNDA" H 5950 6900 50  0000 C CNN
F 2 "" H 5950 7050 50  0001 C CNN
F 3 "" H 5950 7050 50  0001 C CNN
	1    5950 7050
	1    0    0    -1  
$EndComp
Wire Wire Line
	5850 6950 5950 6950
Wire Wire Line
	5950 6950 5950 7050
$Comp
L power:GNDA #PWR068
U 1 1 5FD5EAAC
P 4400 6600
F 0 "#PWR068" H 4400 6350 50  0001 C CNN
F 1 "GNDA" H 4400 6450 50  0000 C CNN
F 2 "" H 4400 6600 50  0001 C CNN
F 3 "" H 4400 6600 50  0001 C CNN
	1    4400 6600
	1    0    0    -1  
$EndComp
Wire Wire Line
	4300 6500 4400 6500
Wire Wire Line
	4400 6500 4400 6600
Wire Wire Line
	4600 6550 4600 6400
Wire Wire Line
	4600 6400 4300 6400
Wire Wire Line
	4600 6550 5000 6550
Wire Wire Line
	4600 6750 4600 6950
Wire Wire Line
	4300 6950 4600 6950
Wire Wire Line
	4600 6750 5000 6750
$Comp
L Device:C C16
U 1 1 5FD5EABA
P 6250 7250
F 0 "C16" H 6365 7296 50  0000 L CNN
F 1 "100nF" H 6365 7205 50  0000 L CNN
F 2 "Capacitor_SMD:C_0603_1608Metric" H 6288 7100 50  0001 C CNN
F 3 "~" H 6250 7250 50  0001 C CNN
F 4 "0603YC104MAT4A" H 6250 7250 50  0001 C CNN "PartNumber"
	1    6250 7250
	1    0    0    -1  
$EndComp
$Comp
L power:GNDA #PWR075
U 1 1 5FD5EAC6
P 6250 7400
F 0 "#PWR075" H 6250 7150 50  0001 C CNN
F 1 "GNDA" H 6250 7250 50  0000 C CNN
F 2 "" H 6250 7400 50  0001 C CNN
F 3 "" H 6250 7400 50  0001 C CNN
	1    6250 7400
	1    0    0    -1  
$EndComp
Wire Wire Line
	6250 6950 6250 7050
Wire Wire Line
	6250 7050 6400 7050
Connection ~ 6250 7050
Wire Wire Line
	6250 7050 6250 7100
Text Label 4350 6950 0    50   ~ 0
RIn5
Text Label 6150 6350 0    50   ~ 0
R-In4
$Comp
L Device:C C33
U 1 1 5FDA60E3
P 7900 6350
F 0 "C33" V 7800 6150 50  0000 L CNN
F 1 "470nF" V 7800 6400 50  0000 L CNN
F 2 "Capacitor_SMD:C_0603_1608Metric" H 7938 6200 50  0001 C CNN
F 3 "~" H 7900 6350 50  0001 C CNN
F 4 "885012206075" V 7900 6350 50  0001 C CNN "PartNumber"
	1    7900 6350
	0    1    1    0   
$EndComp
Wire Wire Line
	8250 6350 8050 6350
Wire Wire Line
	6400 6550 6400 7050
Wire Wire Line
	5850 6550 6400 6550
Text Label 4850 5750 0    50   ~ 0
S
Text Label 4850 6950 0    50   ~ 0
S
Wire Wire Line
	4850 6950 5000 6950
Wire Wire Line
	4850 5750 5000 5750
$Comp
L Device:R R25
U 1 1 6008E66B
P 4950 5000
F 0 "R25" V 4900 4700 50  0000 L CNN
F 1 "0E" V 4900 5150 50  0000 L CNN
F 2 "Resistor_SMD:R_0603_1608Metric" V 4880 5000 50  0001 C CNN
F 3 "~" H 4950 5000 50  0001 C CNN
	1    4950 5000
	0    1    1    0   
$EndComp
Wire Wire Line
	4600 5200 4600 5000
Wire Wire Line
	4600 5000 4800 5000
Connection ~ 4600 5200
Wire Wire Line
	5100 5000 6100 5000
Wire Wire Line
	6100 5000 6100 5450
Connection ~ 6100 5450
Wire Wire Line
	5850 5350 5950 5350
Wire Wire Line
	5950 5350 5950 4450
Wire Wire Line
	5550 4450 5550 4350
Wire Wire Line
	5550 4450 5950 4450
Wire Wire Line
	5550 4450 5550 4500
Connection ~ 5550 4450
$Comp
L Device:R R26
U 1 1 600FDC92
P 4950 6200
F 0 "R26" V 4900 5900 50  0000 L CNN
F 1 "0E" V 4900 6350 50  0000 L CNN
F 2 "Resistor_SMD:R_0603_1608Metric" V 4880 6200 50  0001 C CNN
F 3 "~" H 4950 6200 50  0001 C CNN
	1    4950 6200
	0    1    1    0   
$EndComp
Wire Wire Line
	4600 6400 4600 6200
Wire Wire Line
	4600 6200 4800 6200
Connection ~ 4600 6400
Wire Wire Line
	5100 6200 6100 6200
Wire Wire Line
	6100 6200 6100 6350
Wire Wire Line
	6100 6650 5850 6650
Connection ~ 6100 6350
Wire Wire Line
	6100 6350 6100 6650
Wire Wire Line
	5350 1900 6150 1900
$Comp
L Device:C C2
U 1 1 603732BC
P 3000 5900
F 0 "C2" H 2750 5900 50  0000 L CNN
F 1 "10uF" H 2650 6000 50  0000 L CNN
F 2 "Capacitor_SMD:C_0805_2012Metric" H 3038 5750 50  0001 C CNN
F 3 "~" H 3000 5900 50  0001 C CNN
F 4 "CL21B106KOQNNNE" H 3000 5900 50  0001 C CNN "PartNumber"
	1    3000 5900
	-1   0    0    1   
$EndComp
Connection ~ 3000 5750
$Comp
L Device:Q_NMOS_GSD Q1
U 1 1 5FD1F2E8
P 4100 3350
F 0 "Q1" H 4305 3396 50  0000 L CNN
F 1 "NTR5103NT1G" H 4305 3305 50  0000 L CNN
F 2 "Package_TO_SOT_SMD:SOT-23" H 4300 3450 50  0001 C CNN
F 3 "~" H 4100 3350 50  0001 C CNN
F 4 "NTR5103NT1G" H 4100 3350 50  0001 C CNN "PartNumber"
	1    4100 3350
	1    0    0    -1  
$EndComp
$Comp
L Device:R R23
U 1 1 5FF82E4F
P 3700 3100
F 0 "R23" H 3770 3146 50  0000 L CNN
F 1 "10k" H 3770 3055 50  0000 L CNN
F 2 "Resistor_SMD:R_0603_1608Metric" V 3630 3100 50  0001 C CNN
F 3 "~" H 3700 3100 50  0001 C CNN
	1    3700 3100
	1    0    0    -1  
$EndComp
Wire Wire Line
	3700 3250 3700 3350
Connection ~ 3700 3350
Wire Wire Line
	3700 3350 3900 3350
Wire Wire Line
	3650 3450 3650 3350
Connection ~ 3650 3350
Wire Wire Line
	3650 3350 3700 3350
$Comp
L Device:R R22
U 1 1 60057D79
P 2750 3600
F 0 "R22" H 2820 3646 50  0000 L CNN
F 1 "DNP" H 2820 3555 50  0000 L CNN
F 2 "Resistor_SMD:R_0603_1608Metric" V 2680 3600 50  0001 C CNN
F 3 "~" H 2750 3600 50  0001 C CNN
	1    2750 3600
	1    0    0    -1  
$EndComp
$Comp
L power:GNDA #PWR063
U 1 1 60058191
P 2750 3750
F 0 "#PWR063" H 2750 3500 50  0001 C CNN
F 1 "GNDA" H 2755 3577 50  0000 C CNN
F 2 "" H 2750 3750 50  0001 C CNN
F 3 "" H 2750 3750 50  0001 C CNN
	1    2750 3750
	1    0    0    -1  
$EndComp
$Comp
L Device:R R21
U 1 1 6005844D
P 2550 2800
F 0 "R21" H 2620 2846 50  0000 L CNN
F 1 "10k" H 2620 2755 50  0000 L CNN
F 2 "Resistor_SMD:R_0603_1608Metric" V 2480 2800 50  0001 C CNN
F 3 "~" H 2550 2800 50  0001 C CNN
	1    2550 2800
	1    0    0    -1  
$EndComp
$Comp
L power:+3V3 #PWR062
U 1 1 60058A29
P 2550 2650
F 0 "#PWR062" H 2550 2500 50  0001 C CNN
F 1 "+3V3" H 2565 2823 50  0000 C CNN
F 2 "" H 2550 2650 50  0001 C CNN
F 3 "" H 2550 2650 50  0001 C CNN
	1    2550 2650
	1    0    0    -1  
$EndComp
Wire Wire Line
	2550 3250 2550 2950
Wire Wire Line
	2400 3250 2550 3250
$Comp
L power:GNDA #PWR021
U 1 1 600C13D1
P 2500 3550
F 0 "#PWR021" H 2500 3300 50  0001 C CNN
F 1 "GNDA" H 2505 3377 50  0000 C CNN
F 2 "" H 2500 3550 50  0001 C CNN
F 3 "" H 2500 3550 50  0001 C CNN
	1    2500 3550
	1    0    0    -1  
$EndComp
Wire Wire Line
	2400 3450 2500 3450
Wire Wire Line
	2500 3450 2500 3550
$Comp
L Device:C C18
U 1 1 5FBC9FE6
P 4200 8550
F 0 "C18" H 4315 8596 50  0000 L CNN
F 1 "100nF" H 4315 8505 50  0000 L CNN
F 2 "Capacitor_SMD:C_0603_1608Metric" H 4238 8400 50  0001 C CNN
F 3 "~" H 4200 8550 50  0001 C CNN
F 4 "0603YC104MAT4A" H 4200 8550 50  0001 C CNN "PartNumber"
	1    4200 8550
	-1   0    0    -1  
$EndComp
$Comp
L Device:R R11
U 1 1 5FBC937F
P 3650 8550
F 0 "R11" H 3720 8596 50  0000 L CNN
F 1 "1k" H 3720 8505 50  0000 L CNN
F 2 "Resistor_SMD:R_0603_1608Metric" V 3580 8550 50  0001 C CNN
F 3 "~" H 3650 8550 50  0001 C CNN
	1    3650 8550
	-1   0    0    -1  
$EndComp
Text Label 2450 1900 0    50   ~ 0
VIN
Text Label 2450 3250 0    50   ~ 0
S
$Comp
L Connector_Generic:Conn_01x03 J16
U 1 1 5FE8DDAE
P 2200 3350
F 0 "J16" H 2200 3550 50  0000 C CNN
F 1 "Inputs" H 2150 3150 50  0000 C CNN
F 2 "Phoenix_Contact:PTSA-3.5mm-3pins" H 2200 3350 50  0001 C CNN
F 3 "~" H 2200 3350 50  0001 C CNN
	1    2200 3350
	-1   0    0    -1  
$EndComp
Wire Wire Line
	4200 2100 4200 3150
Wire Wire Line
	4200 3550 4200 3750
Wire Wire Line
	2400 3350 3650 3350
Wire Wire Line
	2550 3250 2750 3250
Wire Wire Line
	2750 3250 2750 3450
Connection ~ 2550 3250
Wire Wire Line
	6100 5450 7750 5450
Wire Wire Line
	6100 6350 7750 6350
$Comp
L Device:Ferrite_Bead FB1
U 1 1 5FE8E7FA
P 10200 1900
F 0 "FB1" V 9926 1900 50  0000 C CNN
F 1 "74279265" V 10017 1900 50  0000 C CNN
F 2 "Inductor_SMD:L_0603_1608Metric" V 10130 1900 50  0001 C CNN
F 3 "~" H 10200 1900 50  0001 C CNN
F 4 "74279265" V 10200 1900 50  0001 C CNN "PartNumber"
	1    10200 1900
	0    1    1    0   
$EndComp
$Comp
L power:+3V3 #PWR024
U 1 1 5FE8F333
P 10650 1750
F 0 "#PWR024" H 10650 1600 50  0001 C CNN
F 1 "+3V3" H 10665 1923 50  0000 C CNN
F 2 "" H 10650 1750 50  0001 C CNN
F 3 "" H 10650 1750 50  0001 C CNN
	1    10650 1750
	1    0    0    -1  
$EndComp
$Comp
L power:+3.3VA #PWR023
U 1 1 5FE8FA74
P 9700 1750
F 0 "#PWR023" H 9700 1600 50  0001 C CNN
F 1 "+3.3VA" H 9715 1923 50  0000 C CNN
F 2 "" H 9700 1750 50  0001 C CNN
F 3 "" H 9700 1750 50  0001 C CNN
	1    9700 1750
	1    0    0    -1  
$EndComp
Wire Wire Line
	10350 1900 10650 1900
Wire Wire Line
	10650 1900 10650 1750
Wire Wire Line
	10050 1900 9750 1900
Wire Wire Line
	9750 1900 9750 1950
Wire Wire Line
	9750 1950 9700 1950
Connection ~ 9700 1950
Wire Wire Line
	9700 1950 9700 2000
$Comp
L power:+3.3VA #PWR0101
U 1 1 5FEB40F8
P 5550 4350
F 0 "#PWR0101" H 5550 4200 50  0001 C CNN
F 1 "+3.3VA" H 5565 4523 50  0000 C CNN
F 2 "" H 5550 4350 50  0001 C CNN
F 3 "" H 5550 4350 50  0001 C CNN
	1    5550 4350
	1    0    0    -1  
$EndComp
$Comp
L power:+3.3VA #PWR0102
U 1 1 5FEC4CC4
P 6250 6950
F 0 "#PWR0102" H 6250 6800 50  0001 C CNN
F 1 "+3.3VA" H 6265 7123 50  0000 C CNN
F 2 "" H 6250 6950 50  0001 C CNN
F 3 "" H 6250 6950 50  0001 C CNN
	1    6250 6950
	1    0    0    -1  
$EndComp
$Comp
L power:+3.3VA #PWR?
U 1 1 5FEF0F8A
P 3700 2950
F 0 "#PWR?" H 3700 2800 50  0001 C CNN
F 1 "+3.3VA" H 3715 3123 50  0000 C CNN
F 2 "" H 3700 2950 50  0001 C CNN
F 3 "" H 3700 2950 50  0001 C CNN
	1    3700 2950
	1    0    0    -1  
$EndComp
$EndSCHEMATC
